{
  "METADATA": {
    "created": "datetime",
    "updated": "datetime",
    "version": "integer",
    "origin": "machine_ip:string"
  },
  "MAP":{
    "machines": {
      "node_ip_1": {
        "status": "on/off/unknown:integer(1,0,2)",
        "prog_status": "on/off/unknown:integer(1,0,2)",
        "role": "master/worker/standby/security:integer(1,2,3,4)",
        "modules": ["mod_name0:string", "mod_name1:string", "mod_name2:string"],
        "SPECS":{
          "cpu": "cpu_name:string",
          "cores": "integer",
          "ram": "integer",
          "storage": "integer"
        }

      },
      "node_ip_2": {
        "status": "on/off/unknown:integer(1,0,2)",
        "prog_status": "on/off/unknown:integer(1,0,2)",
        "role": "master/worker/standby/security:integer(1,2,3,4)",
        "modules": ["mod_name0:string", "mod_name1:string", "mod_name2:string"],
        "SPECS":{
          "cpu": "cpu_name:string",
          "cores": "integer",
          "ram": "integer",
          "storage": "integer"
      }
  },
  "LAST_COMMIT": {
    "changes": {"0before_json_dictionary_item/path": "new path/dict item",
      "1before_json_dictionary_item/path": "new path/dict item",
      "2before_json_dictionary_item/path": "new path/dict item"
    }
  }
}